{
  "version": "1.0",
  "defaultProvider": "cdnjs",
  "libraries": [
    {
      "library": "jquery@3.4.1",
      "destination": "wwwroot/lib/jquery/"
    },
    {
      "library": "bootstrap-rtl@3.4.0",
      "destination": "wwwroot/lib/bootstrap-rtl/"
    },
    {
      "provider": "jsdelivr",
      "library": "bootstrap@4.4.1",
      "destination": "wwwroot/lib/bootstrap/"
    }
  ]
}